
============ 10/31/2005 =============
1. put enterprise-level logo on department selection page
2. change shopping_list_alternative from business to department. 
=====================================